quarto-inputac460e92ca3be95e
…
これにより, 制約条件 \(\boldsymbol{a}'\boldsymbol{a}=1\) が確認できます.

ここで得られた式 \(S\boldsymbol{a} = \lambda\boldsymbol{a}\) について, 共分散行列 \(S\) の固有値問題を表しており, \(S\) の固有ベクトル \(\boldsymbol{a}\) とその固有値 \(\lambda\) を求める問題です. 固有値は主成分の分散を表し, 最大の固有値に対応する固有ベクトルが主成分を表します.

PCA の目的は, 最大の分散を持つ主成分の探索です. 最大分散を持つ主成分は, 最大の固有値 \(\lambda_1\) に対応する固有ベクトル \(a_1\) です. これは第一主成分で, データの中で最も重要な方向を示します. その方向にデータを投影することで次元を減らします. 二番目に分散が大きい固有値とそれに対応する固有ベクトルは第二主成分を示します. このようにして, n 個の主成分 (固有ベクトル) を得ることができます. これらの主成分は, たがいに直行しており, データの次元を減らすための新しい軸を提供します.

また, PCA のもう一つの重要な特徴として, 得られる主成分が無相関であることです (“Principal Component Analysis for Special Types of Data” 2002). つまり, 主成分間の共分散が 0 になり, 固有ベクトルの内積が 0 になります. 固有ベクトルは, 各主成分が元の変数にどれだけ寄与しているかを示す重み (寄与率) であり, 主成分得点は線形結合の結果で示されます. この値は, 各データポイントが各主成分でどの位置にあるかを示します.

バイプロット

ここまでは数式による表現でしたが、 この結果を図示することで、 より解析の解釈が直感的になります。 ここでは、 Iris を使用した PCA の結果を図示します。

はじめに、データを読み込みます。 結果は以下の通りです。

# A tibble: 150 × 5
  Sepal.Length Sepal.Width Petal.Length Petal.Width Species
         <dbl>       <dbl>        <dbl>       <dbl> <fct>  
1          5.1         3.5          1.4         0.2 setosa 
2          4.9         3            1.4         0.2 setosa 
3          4.7         3.2          1.3         0.2 setosa 
4          4.6         3.1          1.5         0.2 setosa 
5          5           3.6          1.4         0.2 setosa 
# ℹ 145 more rows
…
